<svg width="25px" height="25px" viewBox="0 0 25 25" version="1.1" xmlns="http://www.w3.org/2000/svg" xmlns:xlink="http://www.w3.org/1999/xlink">
    <g id="Symbols" stroke="none" stroke-width="1" fill="none" fill-rule="evenodd">
        <g id="nav/desktop" transform="translate(-1294.000000, -43.000000)" fill="#FFFFFF">
            <path d="M1297,53 C1297,49.1407431 1300.14061,46 1304.00055,46 C1307.86049,46 1311,49.1407431 1311,53 C1311,56.8592569 1307.86049,60 1304.00055,60 C1300.13951,60 1297,56.8592569 1297,53 L1297,53 Z M1319,65.5469187 L1312.48439,59.0843183 C1313.70933,57.4117116 1314.4343,55.3556348 1314.4343,53.1348913 C1314.4343,47.5463773 1309.85155,43 1304.21658,43 C1298.58275,43 1294,47.5463773 1294,53.1348913 C1294,58.7245331 1298.58275,63.2709104 1304.21658,63.2709104 C1306.35171,63.2709104 1308.33571,62.6167554 1309.97768,61.5013083 L1316.52852,68 L1319,65.5469187 Z" id="Search"></path>
        </g>
    </g>
</svg>
