<svg xmlns="http://www.w3.org/2000/svg" width="70.56" height="70.56" viewBox="0 0 70.56 70.56">
  <title>Asset 9</title>
  <path d="M35.28,0A35.28,35.28,0,1,0,70.56,35.28,35.28,35.28,0,0,0,35.28,0ZM53,29.2C53.54,40.71,45,53.54,29.76,53.54a23.17,23.17,0,0,1-12.54-3.68,16.38,16.38,0,0,0,12.11-3.39,8.18,8.18,0,0,1-7.64-5.68,8.06,8.06,0,0,0,3.7-.14,8.19,8.19,0,0,1-6.57-8.12,8.2,8.2,0,0,0,3.71,1A8.19,8.19,0,0,1,20,22.63a23.24,23.24,0,0,0,16.86,8.55,8.19,8.19,0,0,1,14-7.47,16.62,16.62,0,0,0,5.19-2,8.18,8.18,0,0,1-3.6,4.52A16,16,0,0,0,57.1,25,16.29,16.29,0,0,1,53,29.2Z" style="fill: #231f20"/>
</svg>
